module imgGalleryPOC

go 1.22.3

require (
	github.com/chai2010/webp v1.1.1
	github.com/disintegration/imaging v1.6.2
	github.com/mattn/go-sqlite3 v1.14.22
	github.com/rwcarlsen/goexif v0.0.0-20190401172101-9e8deecbddbd
)

require (
	github.com/dsoprea/go-exif/v3 v3.0.1 // indirect
	github.com/dsoprea/go-logging v0.0.0-20200710184922-b02d349568dd // indirect
	github.com/dsoprea/go-utility/v2 v2.0.0-20221003172846-a3e1774ef349 // indirect
	github.com/go-errors/errors v1.4.2 // indirect
	github.com/golang/geo v0.0.0-20210211234256-740aa86cb551 // indirect
	golang.org/x/image v0.18.0 // indirect
	golang.org/x/net v0.0.0-20221002022538-bcab6841153b // indirect
	gopkg.in/yaml.v2 v2.4.0 // indirect
)
